{
    "vouchers" : {
        "summer2018" : {
            "name" : "Summer 2018",
            "code" : "summer2018",
            "discount" : "10%",
            "discountValue" : 1.1,
            "aplliesTo" : {
                "windows" : ["pro", "superpro"], 
                "linux" : ["pro", "superpro"]
            }
        },
        "tooHot" : {
            "name" : "Too Hot",
            "code" : "toohot",
            "discount" : "20%",
            "discountValue" : 1.2,
            "aplliesTo" : {
                "windows" : ["regular"], 
                "linux" : ["pro"]
            }
        }
    }
}